Homework 4
…
Challenge 2

cv_summary(cv_data, country_list = c("United States", "United Kingdom", "Canada", "France", "Italy", "Japan", "China", "Russia", "Iran"))

## $totals
## # A tibble: 54 x 13
##    country variable cases population   area density    rate gdp_capita income
##    <chr>   <chr>    <dbl>      <dbl>  <dbl>   <dbl>   <dbl>      <dbl> <chr> 
##  1 Canada  confirm 70091   37057765 9.09e6    4.08 1.89e+3     51392. High 
##  2 Canada  daily_c  2778   37057765 9.09e6    4.08 7.50e+1     51392. High 
##  3 Canada  daily_d   251   37057765 9.09e6    4.08 6.77e+0     51392. High 
##  4 Canada  daily_r  1385   37057765 9.09e6    4.08 3.74e+1     51392. High 
##  5 Canada  deaths    4991   37057765 9.09e6    4.08 1.35e+2     51392. High 
##  6 Canada  recover 32109   37057765 9.09e6    4.08 8.66e+2     51392. High 
##  7 China   confirm 84010 1392730000 9.39e6  148.   6.03e+1      7753. Upper
##  8 China   daily_c 15136 1392730000 9.39e6  148.   1.09e+1      7753. Upper
##  9 China   daily_d  1290 1392730000 9.39e6  148.   9.26e-1      7753. Upper
## 10 China   daily_r  3995 1392730000 9.39e6  148.   2.87e+0      7753. Upper
## #  with 44 more rows, and 4 more variables: life_expectancy <dbl>,
## #   max_sd <dbl>, max_mr <dbl>, on <date>
## 
## $cum_cases_plot
…
cv_summary(cv_data, country_list = c("United States", "United Kingdom", "Canada", "France", "Italy", "Japan", "China", "Russia", "Iran"), facet = "variable")

## $totals
## # A tibble: 54 x 13
##    country variable cases population   area density    rate gdp_capita income
##    <chr>   <chr>    <dbl>      <dbl>  <dbl>   <dbl>   <dbl>      <dbl> <chr> 
##  1 Canada  confirm 70091   37057765 9.09e6    4.08 1.89e+3     51392. High 
##  2 Canada  daily_c  2778   37057765 9.09e6    4.08 7.50e+1     51392. High 
##  3 Canada  daily_d   251   37057765 9.09e6    4.08 6.77e+0     51392. High 
##  4 Canada  daily_r  1385   37057765 9.09e6    4.08 3.74e+1     51392. High 
##  5 Canada  deaths    4991   37057765 9.09e6    4.08 1.35e+2     51392. High 
##  6 Canada  recover 32109   37057765 9.09e6    4.08 8.66e+2     51392. High 
##  7 China   confirm 84010 1392730000 9.39e6  148.   6.03e+1      7753. Upper
##  8 China   daily_c 15136 1392730000 9.39e6  148.   1.09e+1      7753. Upper
##  9 China   daily_d  1290 1392730000 9.39e6  148.   9.26e-1      7753. Upper
## 10 China   daily_r  3995 1392730000 9.39e6  148.   2.87e+0      7753. Upper
## #  with 44 more rows, and 4 more variables: life_expectancy <dbl>,
## #   max_sd <dbl>, max_mr <dbl>, on <date>
## 
## $cum_cases_plot
…
Challenge 3

(d <- cv_data %>% filter(population > 1000000) %>% cv_summary(country_list = "All", plot = FALSE))

## $totals
## # A tibble: 924 x 13
##    country variable cases population   area density    rate gdp_capita income
##    <chr>   <chr>    <dbl>      <dbl>  <dbl>   <dbl>   <dbl>      <dbl> <chr> 
##  1 Afghan confirm  4402   37172386 652860    56.9 118.          564. Low i
##  2 Afghan daily_c   369   37172386 652860    56.9   9.93        564. Low i
##  3 Afghan daily_d    13   37172386 652860    56.9   0.350       564. Low i
##  4 Afghan daily_r    56   37172386 652860    56.9   1.51        564. Low i
##  5 Afghan deaths     120   37172386 652860    56.9   3.23        564. Low i
##  6 Afghan recover   558   37172386 652860    56.9  15.0         564. Low i
##  7 Albania confirm   868    2866376  27400   105.  303.         5079. Upper
##  8 Albania daily_c    34    2866376  27400   105.   11.9        5079. Upper
##  9 Albania daily_d     4    2866376  27400   105.    1.40       5079. Upper
## 10 Albania daily_r    31    2866376  27400   105.   10.8        5079. Upper
## #  with 914 more rows, and 4 more variables: life_expectancy <dbl>,
## #   max_sd <dbl>, max_mr <dbl>, on <date>

The tibble defined above, d, contains summary data for all 94 countries in the dataset that had populations over 1,000,000.

Challenge 4

(overall <- d$totals %>% filter(variable == "confirmed") %>% arrange(desc(rate)))

## # A tibble: 154 x 13
##    country variable  cases population   area density  rate gdp_capita income
##    <chr>   <chr>     <dbl>      <dbl>  <dbl>   <dbl> <dbl>      <dbl> <chr> 
##  1 Qatar   confirm 2.25e4    2781677 1.16e4   240.  8096.     63261. High 
##  2 Spain   confirm 2.24e5   46796540 5.00e5    93.5 4794.     32950. High 
##  3 Ireland confirm 2.30e4    4867309 6.89e4    70.5 4725.     76881. High 
##  4 Belgium confirm 5.31e4   11433256 3.03e4   377.  4643.     47166. High 
##  5 Singap confirm 2.33e4    5638676 7.09e2  7953.  4139.     58248. High 
##  6 United confirm 1.33e6  326687501 9.15e6    35.8 4069.     54579. High 
##  7 Italy   confirm 2.19e5   60421760 2.94e5   205.  3626.     35432. High 
##  8 Switze confirm 3.03e4    8513227 3.95e4   216.  3560.     79214. High 
##  9 United confirm 2.20e5   66460344 2.42e5   275.  3317.     43325. High 
## 10 Bahrain confirm 4.94e3    1569439 7.78e2  2017.  3148.     21438. High 
## #  with 144 more rows, and 4 more variables: life_expectancy <dbl>,
## #   max_sd <dbl>, max_mr <dbl>, on <date>

(daily <- d$totals %>% filter(variable=="daily_confirmed") %>% arrange(desc(rate)))

## # A tibble: 154 x 13
##    country variable cases population   area density  rate gdp_capita income
##    <chr>   <chr>    <dbl>      <dbl>  <dbl>   <dbl> <dbl>      <dbl> <chr> 
##  1 Ecuador daily_c 11536   17084357 2.48e5    68.8  675.      5185. Upper
##  2 Qatar   daily_c  1311    2781677 1.16e4   240.   471.     63261. High 
##  3 France  daily_c 26849   66977107 5.48e5   122.   401.     43664. High 
##  4 Ireland daily_c  1515    4867309 6.89e4    70.5  311.     76881. High 
##  5 Kuwait  daily_c  1065    4137309 1.78e4   232.   257.     33112. High 
##  6 Singap daily_c  1426    5638676 7.09e2  7953.   253.     58248. High 
##  7 Belgium daily_c  2454   11433256 3.03e4   377.   215.     47166. High 
##  8 Bahrain daily_c   330    1569439 7.78e2  2017.   210.     21438. High 
##  9 Spain   daily_c  9630   46796540 5.00e5    93.5  206.     32950. High 
## 10 Belarus daily_c  1485    9483499 2.03e5    46.7  157.      6744. Upper
## #  with 144 more rows, and 4 more variables: life_expectancy <dbl>,
## #   max_sd <dbl>, max_mr <dbl>, on <date>
…
